{
	"$schema": "https://biomejs.dev/schemas/1.2.2/schema.json",
	"organizeImports": {
		"enabled": true
	},
	"linter": {
		"enabled": true,
		"rules": {
			"recommended": true
		}
	},
	"formatter": {
		"enabled": true,
		"formatWithErrors": false,
		"indentStyle": "tab",
		"indentSize": 2,
		"lineWidth": 160,
		"ignore": []
	},
	"javascript": {
		"formatter": {
			"semicolons": "asNeeded",
			"arrowParentheses": "always",
			"quoteProperties": "asNeeded"
		}
	},
	"json": {
		"formatter": {
			"enabled": true,
			"indentSize": 2,
			"indentStyle": "tab"
		}
	}
}
